@startuml
interface DisplayElement {
display()
}
interface Subject {
registerObserver()
removeObserver()
notifyObservers()
}
interface Observer {
update()
}
class ForecastDisplay {
-Subject observable
-int temperature
-int humidity
-int pressure
+display()
+update(int temperature, int humidity, int pressure)
}
class StatisticsDisplay {
-Subject observable
-int temperature
-int humidity
-int pressure
+display()
+update(int temperature, int humidity, int pressure)
}
class CurrentConditionsDisplay {
-Subject observable
-int temperature
-int humidity
-int pressure
+display()
+update(int temperature, int humidity, int pressure)
}
class WeatherData {
-ArrayList<Observer> observers
-int temperature
-int humidity
-int pressure
+void registerObserver(Observer o)
+void removeObserver(Observer o)
+void notifyObservers()
+void changeStatuses()
+void setStatuses(int temperature, int humidity, int pressure)
}

Observer <|.. ForecastDisplay
Observer <|.. StatisticsDisplay
Observer <|.. CurrentConditionsDisplay

DisplayElement <|.. ForecastDisplay
DisplayElement <|.. StatisticsDisplay
DisplayElement <|.. CurrentConditionsDisplay

Subject <|.. WeatherData

ForecastDisplay *--o WeatherData
StatisticsDisplay *--o WeatherData
CurrentConditionsDisplay *--o WeatherData
@enduml
